…
```sql
COPY ipums_staging FROM PROGRAM 'zcat /tmp/usa_NNNNN.dat.gz' WITH (FORMAT text);
```

Next we need to create the household and person tables, using the metadata extracted from the `read_ipums_ddi` function.  Load up the ipumsr package in an R session, run this function and take a quick look inside:

```r
library(tidyverse)
library(ipumsr)

ipumsddi <- read_ipums_ddi("usa_NNNNN.xml", lower_vars = TRUE)
ipumsddi$var_info

# A tibble: 71 x 10
   var_name var_label   var_desc    val_labels code_instr    start   end imp_decim var_type rectypes
   <chr>    <chr>       <chr>       <list>     <chr>         <dbl> <dbl>     <dbl> <chr>    <lgl>
 1 year     Census year "YEAR repo… <tibble […  NA               1     4         0 integer  NA
 2 sample   IPUMS samp… "SAMPLE id… <tibble […  NA               5    10         0 integer  NA
 3 serial   Household … "SERIAL is… <tibble [… "CodesSERIAL…    11    18         0 numeric  NA
 4 pernum   Person num… "PERNUM nu… <tibble [… "CodesPERNUM…    19    22         0 numeric  NA
 5 perwt    Person wei… "PERWT ind… <tibble [… "CodesPERWT …    23    32         2 numeric  NA
 6 famunit  Family uni… "FAMUNIT i… <tibble […  NA              33    34         0 integer  NA
 7 famsize  Number of … "FAMSIZE c… <tibble […  NA              35    36         0 integer  NA
 8 subfam   Subfamily … "SUBFAM in… <tibble […  NA              37    37         0 integer  NA
 9 sftype   Subfamily … "SFTYPE in… <tibble […  NA              38    38         0 integer  NA
10 sfrelate Relationsh… "SFRELATE … <tibble […  NA              39    39         0 integer  NA
# … with 61 more rows
…
